Exercicio limpeza de dados
…
## Warning: `return` param in `occ_search` function is defunct as of rgbif v3.0.0, and is ignored
## See `?rgbif` for more information.
## This warning will be thrown once per R session.

occs

## Records found [126] 
## Records returned [126] 
## No. unique hierarchies [1] 
## No. media records [126] 
## No. facets [0] 
## Args [limit=500, offset=0, scientificName=Euglossa annectans, fields=all] 
## # A tibble: 126 x 103
##    key   scientificName decimalLatitude decimalLongitude issues datasetKey
##    <chr> <chr>                    <dbl>            <dbl> <chr>  <chr>     
##  1 3290… Euglossa anne…           -23.5            -45.8 gass8… 86aba78e-…
##  2 3290… Euglossa anne…           -23.8            -45.4 gass8… 86aba78e-…
##  3 3290… Euglossa anne…           -23.5            -46.2 gass8… 86aba78e-…
##  4 3290… Euglossa anne…           -23.5            -45.8 gass8… 86aba78e-…
##  5 3290… Euglossa anne…           -23.5            -45.8 gass8… 86aba78e-…
##  6 3290… Euglossa anne…           -23.5            -46.2 gass8… 86aba78e-…
##  7 3290… Euglossa anne…           -23.5            -46.2 gass8… 86aba78e-…
##  8 3290… Euglossa anne…           -23.5            -46.2 gass8… 86aba78e-…
##  9 3290… Euglossa anne…           -23.5            -46.2 gass8… 86aba78e-…
## 10 3290… Euglossa anne…           -23.5            -46.2 gass8… 86aba78e-…
## # … with 116 more rows, and 97 more variables: publishingOrgKey <chr>,
## #   installationKey <chr>, publishingCountry <chr>, protocol <chr>,
## #   lastCrawled <chr>, lastParsed <chr>, crawlId <int>,
## #   hostingOrganizationKey <chr>, basisOfRecord <chr>, occurrenceStatus <chr>,
## #   sex <chr>, taxonKey <int>, kingdomKey <int>, phylumKey <int>,
## #   classKey <int>, orderKey <int>, familyKey <int>, genusKey <int>,
## #   speciesKey <int>, acceptedTaxonKey <int>, acceptedScientificName <chr>,
## #   kingdom <chr>, phylum <chr>, order <chr>, family <chr>, genus <chr>,
## #   species <chr>, genericName <chr>, specificEpithet <chr>, taxonRank <chr>,
…
